{
	"asset": {
		"generator": "Blocks",
		"version": "1.0.4",
		"copyright": "Unknown"
	},
	"buffers": {
		"model": {
			"byteLength": 180948,
			"type": "arraybuffer",
			"uri": "model.bin"
		}
	},
	"accessors": {
		"accessor_position_m0-PolyPaper1_-1264262": {
			"bufferView": "vec3BufferView",
			"byteOffset": 0,
			"byteStride": 12,
			"componentType": 5126,
			"count": 4260,
			"max": [ 0.9173449, 1.420517, 0.8166686 ],
			"min": [ 0.7301609, 1.279891, 0.6859187 ],
			"type": "VEC3"
		 },
		"accessor_normal_m0-PolyPaper1_-1264262": {
			"bufferView": "vec3BufferView",
			"byteOffset": 51120,
			"byteStride": 12,
			"componentType": 5126,
			"count": 4260,
			"max": [ 0.9993812, 0.9999906, 0.9997562 ],
			"min": [ -0.999738, -0.9999961, -0.9997562 ],
			"type": "VEC3"
		 },
		"accessor_color_m0-PolyPaper1_-1264262": {
			"bufferView": "vec4BufferView",
			"byteOffset": 0,
			"byteStride": 16,
			"componentType": 5126,
			"count": 4260,
			"max": [ 1, 1, 1, 1 ],
			"min": [ 0.01176471, 0.1019608, 0, 1 ],
			"type": "VEC4"
		 },
		"accessor_indices_0_m0-PolyPaper1_-1264262": {
			"bufferView": "ushortBufferView",
			"byteOffset": 0,
			"byteStride": 0,
			"componentType": 5123,
			"count": 5274,
			"max": [ 4259 ],
			"min": [ 0 ],
			"type": "SCALAR"
		 }
	},
	"bufferViews": {
		"ushortBufferView": {
			"buffer": "model",
			"byteLength": 10548,
			"byteOffset": 0,
			"target": 34963
		},
		"vec3BufferView": {
			"buffer": "model",
			"byteLength": 102240,
			"byteOffset": 10548,
			"target": 34962
		},
		"vec4BufferView": {
			"buffer": "model",
			"byteLength": 68160,
			"byteOffset": 112788,
			"target": 34962
		}
	},
	"meshes": {
		"mesh_m0-PolyPaper1_-1264262": {
			"name": "mesh_m0-PolyPaper1_-1264262",
			"primitives": [
				{
					"attributes": {
						"POSITION": "accessor_position_m0-PolyPaper1_-1264262",
						"NORMAL": "accessor_normal_m0-PolyPaper1_-1264262",
						"COLOR": "accessor_color_m0-PolyPaper1_-1264262"
					},
					"indices": "accessor_indices_0_m0-PolyPaper1_-1264262",
					"material": "material_mat1",
					"mode": 4
				}
			]
		}
	},
	"shaders": {
		"vertex_mat1": {
			"type": 35633,
			"uri": "https://vr.google.com/shaders/w/vs.glsl"
		},
		"fragment_mat1": {
			"type": 35632,
			"uri": "https://vr.google.com/shaders/w/fs.glsl"
		}
	},
	"programs": {
		"program_mat1": {
			"attributes": [
				"a_position",
				"a_normal",
				"a_color"				
			],
			"vertexShader": "vertex_mat1",
			"fragmentShader": "fragment_mat1"
		}
	},
	"techniques": {
		"technique_mat1": {
			"program": "program_mat1",
			"extras": {"gvrss" : "https://vr.google.com/shaders/w/gvrss/paper.json"},
			"parameters": {
				"position": {
					"type": 35665,
					"semantic": "POSITION"
				},
				"normal": {
					"type": 35665,
					"semantic": "NORMAL"
				},
				"color": {
					"type": 35666,
					"semantic": "COLOR"
				},
				"modelViewMatrix": {
					"type": 35676,
					"semantic": "MODELVIEW"
				},
				"projectionMatrix": {
					"type": 35676,
					"semantic": "PROJECTION"
				},
				"normalMatrix": {
					"type": 35675,
					"semantic": "MODELVIEWINVERSETRANSPOSE"
				},
				"color": {
					"type": 35666
				},
				"roughness": {
					"type": 5126
				},
				"metallic": {
					"type": 5126
				},
				"light0Pos": {
					"type": 35666
				},
				"light0Color": {
					"type": 35666
				},
				"light1Pos": {
					"type": 35666
				},
				"light1Color": {
					"type": 35666
				}				
			},
			"attributes": {
				"a_position": "position",
				"a_normal": "normal",
				"a_color": "color"				
			},
			"uniforms": {
				"u_modelViewMatrix": "modelViewMatrix",
				"u_projectionMatrix": "projectionMatrix",
				"u_normalMatrix": "normalMatrix",
				"u_color": "color",
				"u_roughness": "roughness",
				"u_metallic": "metallic",
				"u_light0Pos": "light0Pos",
				"u_light0Color": "light0Color",
				"u_light1Pos": "light1Pos",
				"u_light1Color": "light1Color"				
			},
			"states": {
				"enable": [
					2929,
					2884
				],
				"functions": {
					"cullFace": [1029]
				}
			}
		}
	},
	"materials": {
		"material_mat1": {
			"technique": "technique_mat1",
			"values": {
				"color": [0.6117647, 0.1529412, 0.6901961, 1],
				"roughness": 0.72,
				"metallic": 0,
				"light0Pos": [-0.02, 4.11, -0.54, 0],
				"light0Color": [0.8, 0.8, 0.8, 0],
				"light1Pos": [0.02, -4.11, 0.54, 0],
				"light1Color": [0.64, 0.5647059, 0.5647059, 0]				
			},
			"name": "material_mat1"
		}
	},
	"nodes": {
		"node_MeshObject1784652736-PolyPaper1": {
			"name": "node_MeshObject1784652736-PolyPaper1",
			"meshes": [
				"mesh_m0-PolyPaper1_-1264262"
			],
			"matrix": [1, 0, 0, 0, 0, 1, 0, 0, 0, 0, 1, 0, 0, 0, 0, 1]
		}
	},
	"scene": "defaultScene",
	"scenes": {
		"defaultScene": {
			"nodes": [
				"node_MeshObject1784652736-PolyPaper1"
			],
			"extras": {

			}
		}
	}
}